\BOOKMARK [1][-]{section*.2}{Introduction}{}% 1
\BOOKMARK [1][-]{section*.3}{Acknowledgements}{}% 2
\BOOKMARK [1][-]{section*.4}{Notation}{}% 3
\BOOKMARK [1][-]{section.1}{1. Preliminaries}{}% 4
\BOOKMARK [2][-]{subsection.1.1}{1.1. Marked simplicial sets and marked-simplicial categories}{section.1}% 5
\BOOKMARK [2][-]{subsection.1.2}{1.2. Scaled simplicial sets and oo-bicategories}{section.1}% 6
\BOOKMARK [2][-]{subsection.1.3}{1.3. Stratified sets}{section.1}% 7
\BOOKMARK [1][-]{section.2}{2. Outer cartesian fibrations}{}% 8
\BOOKMARK [2][-]{subsection.2.1}{2.1. Outer fibrations and cartesian edges}{section.2}% 9
\BOOKMARK [2][-]{subsection.2.2}{2.2. The join and slice constructions}{section.2}% 10
\BOOKMARK [2][-]{subsection.2.3}{2.3. Mapping categories}{section.2}% 11
\BOOKMARK [2][-]{subsection.2.4}{2.4. Cartesian lifts of natural transformations}{section.2}% 12
\BOOKMARK [1][-]{section.3}{3. Thin triangles in weak oo-bicategories}{}% 13
\BOOKMARK [1][-]{section.4}{4. The moving lemma}{}% 14
\BOOKMARK [1][-]{section.5}{5. Weak oo-bicategories are oo-bicategories}{}% 15
\BOOKMARK [1][-]{section.6}{6. The Cisinski model structure for oo-bicategories}{}% 16
\BOOKMARK [1][-]{section.7}{7. The main equivalence}{}% 17
\BOOKMARK [1][-]{section.8}{8. The homotopy 2-category and the scaled 2-nerve}{}% 18
\BOOKMARK [1][-]{appendix.A}{Appendix A. Recollections on Cisinski's and Olschok's theory}{}% 19
\BOOKMARK [1][-]{section*.25}{References}{}% 20
