\relax 
\providecommand\hyper@newdestlabel[2]{}
\providecommand\HyperFirstAtBeginDocument{\AtBeginDocument}
\HyperFirstAtBeginDocument{\ifx\hyper@anchor\@undefined
\global\let\oldcontentsline\contentsline
\gdef\contentsline#1#2#3#4{\oldcontentsline{#1}{#2}{#3}}
\global\let\oldnewlabel\newlabel
\gdef\newlabel#1#2{\newlabelxx{#1}#2}
\gdef\newlabelxx#1#2#3#4#5#6{\oldnewlabel{#1}{{#2}{#3}}}
\AtEndDocument{\ifx\hyper@anchor\@undefined
\let\contentsline\oldcontentsline
\let\newlabel\oldnewlabel
\fi}
\fi}
\global\let\hyper@last\relax 
\gdef\HyperFirstAtBeginDocument#1{#1}
\providecommand\HyField@AuxAddToFields[1]{}
\providecommand\HyField@AuxAddToCoFields[2]{}
\citation{BoardmanVogt}
\citation{JoyalQCatsAndKan}
\citation{HTT}
\citation{LurieGoodwillie}
\citation{BergnerRezkInftynI}
\citation{BergnerRezkInftynII}
\citation{AraQCatvsRezk}
\citation{BarwickSchommerPriesUnicity}
\citation{VerityComplicial}
\citation{VerityWeakComplicialI}
\citation{OzornovaRovelliNComplicial}
\citation{VerityWeakComplicialI}
\citation{RiehlOuverture}
\citation{OzornovaRovelliNComplicial}
\citation{OzornovaRovelli2Complicial}
\citation{LurieGoodwillie}
\citation{cubical}
\citation{DKM-equivalence}
\citation{DKM-equivalence}
\citation{BergnerRezkInftynI}
\citation{JoyalTierneyQcatVSSegal}
\citation{LurieGoodwillie}
\citation{HTT}
\citation{LurieGoodwillie}
\citation{LurieGoodwillie}
\citation{LurieGoodwillie}
\citation{LurieGoodwillie}
\citation{LurieGoodwillie}
\citation{LurieGoodwillie}
\citation{LurieGoodwillie}
\citation{LurieGoodwillie}
\citation{HTT}
\citation{LurieGoodwillie}
\citation{LurieGoodwillie}
\citation{JoyalTierneyQcatVSSegal}
\citation{JoyalTierneyQcatVSSegal}
\citation{JoyalTierneyQcatVSSegal}
\citation{BergnerRezkInftynI}
\citation{BergnerRezkInftynII}
\citation{BergnerRezkInftynII}
\citation{AraQCatvsRezk}
\citation{GindiRigidification}
\@writefile{toc}{\contentsline {section}{\tocsection {}{}{Introduction}}{2}{section*.2}\protected@file@percent }
\citation{OzornovaRovelli2Complicial}
\citation{CampbellCellular}
\citation{GagnaHarpazLanariLaxLimits}
\citation{CisinskiPrefaisceaux}
\citation{OlschokLeft}
\@writefile{lof}{\contentsline {figure}{\numberline {1}{\ignorespaces Models for \((\infty , 2)\)-categories.}}{4}{figure.1}\protected@file@percent }
\newlabel{fig:models}{{1}{4}{Models for \((\infty , 2)\)-categories}{figure.1}{}}
\@writefile{toc}{\contentsline {section}{\tocsection {}{}{Acknowledgements}}{4}{section*.3}\protected@file@percent }
\citation{HTT}
\@writefile{toc}{\contentsline {section}{\tocsection {}{}{Notation}}{5}{section*.4}\protected@file@percent }
\@writefile{toc}{\contentsline {section}{\tocsection {}{1}{Preliminaries}}{5}{section.1}\protected@file@percent }
\newlabel{sec:prelim}{{1}{5}{Preliminaries}{section.1}{}}
\@writefile{toc}{\contentsline {subsection}{\tocsubsection {}{1.1}{Marked simplicial sets and marked-simplicial categories}}{5}{subsection.1.1}\protected@file@percent }
\newlabel{no:marked}{{1.2}{5}{}{thm.1.2}{}}
\newlabel{rem:marked_sset_presentable}{{1.3}{5}{}{thm.1.3}{}}
\citation{HTT}
\citation{HTT}
\newlabel{t:marked-categorical}{{1.5}{6}{\cite {HTT}}{thm.1.5}{}}
\newlabel{d:marked-nerve}{{1.7}{6}{}{thm.1.7}{}}
\newlabel{r:preserves-products}{{1.8}{6}{}{thm.1.8}{}}
\citation{HTT}
\newlabel{e:Lho}{{1.1}{7}{Marked simplicial sets and marked-simplicial categories}{equation.1.1}{}}
\newlabel{l:quillen}{{1.9}{7}{}{thm.1.9}{}}
\citation{LackModel2Cat}
\citation{LackModelBicat}
\citation{BergerMoerdijkHomotopyEnriched}
\newlabel{e:ho-ne}{{1.2}{8}{Marked simplicial sets and marked-simplicial categories}{equation.1.2}{}}
\newlabel{p:quillen-2}{{1.11}{8}{}{thm.1.11}{}}
\citation{LurieGoodwillie}
\citation{LurieGoodwillie}
\citation{LurieGoodwillie}
\citation{LurieGoodwillie}
\@writefile{toc}{\contentsline {subsection}{\tocsubsection {}{1.2}{Scaled simplicial sets and $\infty $-bicategories}}{9}{subsection.1.2}\protected@file@percent }
\newlabel{d:flat-sharp}{{1.13}{9}{}{thm.1.13}{}}
\newlabel{alternative def}{{1.14}{9}{}{thm.1.14}{}}
\newlabel{rem:monos_scaled}{{1.15}{9}{}{thm.1.15}{}}
\newlabel{no:scaled}{{1.16}{9}{}{thm.1.16}{}}
\newlabel{anodyne defi}{{1.17}{9}{\cite [Definition~3.1.3]{LurieGoodwillie}}{thm.1.17}{}}
\citation{LurieGoodwillie}
\citation{LurieGoodwillie}
\citation{LurieKerodon}
\citation{LurieKerodon}
\citation{LurieKerodon}
\citation{LurieKerodon}
\citation{LurieKerodon}
\citation{GagnaHarpazLanari2Fib}
\citation{LurieKerodon}
\newlabel{item:scaled_anodyne_i}{{\penalty \@M An1\hfil }{10}{\enit@align {\enit@format {An1\label {item:scaled_anodyne_i}}}}{section*.5}{}}
\newlabel{item:scaled_anodyne_ii}{{\penalty \@M An2\hfil }{10}{\enit@align {\enit@format {An2\label {item:scaled_anodyne_ii}}}}{section*.6}{}}
\newlabel{item:scaled_anodyne_iii}{{\penalty \@M An3\hfil }{10}{\enit@align {\enit@format {An3\label {item:scaled_anodyne_iii}}}}{section*.7}{}}
\newlabel{rmk:j's are anod}{{1.18}{10}{}{thm.1.18}{}}
\newlabel{d:scaled-fib}{{1.19}{10}{}{thm.1.19}{}}
\newlabel{d:weak-bicat}{{1.20}{10}{\cite [Definition~4.1.1]{LurieGoodwillie}}{thm.1.20}{}}
\newlabel{r:kerodon}{{1.21}{10}{}{thm.1.21}{}}
\newlabel{def:core}{{1.22}{10}{}{thm.1.22}{}}
\newlabel{rem:core-oo-cat}{{1.24}{10}{}{thm.1.24}{}}
\newlabel{d: equivalences}{{1.25}{10}{}{thm.1.25}{}}
\citation{LurieKerodon}
\citation{LurieGoodwillie}
\citation{HTT}
\citation{LurieGoodwillie}
\citation{LurieGoodwillie}
\citation{LurieGoodwillie}
\citation{LurieGoodwillie}
\citation{LurieGoodwillie}
\newlabel{rem:eq}{{1.27}{11}{}{thm.1.27}{}}
\newlabel{coherent nerve eq}{{1.29}{11}{\cite [Theorem 4.2.7]{LurieGoodwillie}}{thm.1.29}{}}
\newlabel{oo-bicat are weak oo-bicat}{{1.30}{11}{\cite [Proposition~3.1.13]{LurieGoodwillie}}{thm.1.30}{}}
\citation{LurieGoodwillie}
\citation{VerityWeakComplicialI}
\citation{VerityWeakComplicialI}
\citation{VerityWeakComplicialI}
\newlabel{r:cartesian}{{1.31}{12}{}{thm.1.31}{}}
\newlabel{rem:biequivalences_closed_op}{{1.32}{12}{}{thm.1.32}{}}
\newlabel{rem:outer_horn-2}{{1.33}{12}{}{thm.1.33}{}}
\@writefile{toc}{\contentsline {subsection}{\tocsubsection {}{1.3}{Stratified sets}}{12}{subsection.1.3}\protected@file@percent }
\newlabel{no:stratified}{{1.36}{12}{}{thm.1.36}{}}
\newlabel{w:flat}{{1.37}{12}{}{thm.1.37}{}}
\newlabel{d:flat}{{1.39}{12}{}{thm.1.39}{}}
\citation{RiehlOuverture}
\citation{VerityWeakComplicialI}
\citation{RiehlOuverture}
\citation{VerityWeakComplicialI}
\citation{OzornovaRovelliNComplicial}
\citation{RiehlOuverture}
\citation{VerityWeakComplicialI}
\newlabel{d:complicial-anodyne}{{1.41}{13}{\cite {RiehlOuverture}, \cite {VerityWeakComplicialI}}{thm.1.41}{}}
\newlabel{compl set defi}{{1.42}{13}{\cite {RiehlOuverture}, \cite {VerityWeakComplicialI}}{thm.1.42}{}}
\citation{OzornovaRovelliNComplicial}
\citation{LurieGoodwillie}
\newlabel{r:closure-nat}{{1.45}{14}{}{thm.1.45}{}}
\@writefile{toc}{\contentsline {section}{\tocsection {}{2}{Outer cartesian fibrations}}{14}{section.2}\protected@file@percent }
\newlabel{sec:fibrations}{{2}{14}{Outer cartesian fibrations}{section.2}{}}
\citation{HTT}
\citation{LurieKerodon}
\newlabel{s:out}{{2.1}{15}{Outer fibrations and cartesian edges}{subsection.2.1}{}}
\@writefile{toc}{\contentsline {subsection}{\tocsubsection {}{2.1}{Outer fibrations and cartesian edges}}{15}{subsection.2.1}\protected@file@percent }
\newlabel{d:weak}{{2.1}{15}{}{thm.2.1}{}}
\newlabel{item:weak-an}{{\penalty \@M An1\hfil }{15}{\enit@align {\enit@format {An1\label {item:weak-an}}}}{section*.8}{}}
\newlabel{item:weak_outer-0}{{\penalty \@M W2\hfil }{15}{\enit@align {\enit@format {W2\label {item:weak_outer-0}}}}{section*.9}{}}
\newlabel{item:weak_outer-n}{{\penalty \@M W3\hfil }{15}{\enit@align {\enit@format {W3\label {item:weak_outer-n}}}}{section*.10}{}}
\newlabel{r:bicategorical-weak}{{2.2}{15}{}{thm.2.2}{}}
\newlabel{d:cartesian}{{2.3}{15}{cf.~{\cite [Remark~2.4.1.4]{HTT}}}{thm.2.3}{}}
\newlabel{d:outer-fibration}{{2.4}{15}{}{thm.2.4}{}}
\newlabel{item:outer_fibration-i}{{\penalty \@M O1\hfil }{15}{\enit@align {\enit@format {O1\label {item:outer_fibration-i}}}}{section*.11}{}}
\newlabel{item:outer_fibration-ii}{{\penalty \@M O2\hfil }{15}{\enit@align {\enit@format {O2\label {item:outer_fibration-ii}}}}{section*.12}{}}
\newlabel{item:outer_fibration-iii}{{\penalty \@M O3\hfil }{15}{\enit@align {\enit@format {O3\label {item:outer_fibration-iii}}}}{section*.13}{}}
\citation{HTT}
\citation{LurieKerodon}
\citation{LurieKerodon}
\citation{LurieKerodon}
\newlabel{r:weak-scaled}{{2.7}{16}{}{thm.2.7}{}}
\newlabel{r:base-change}{{2.9}{16}{}{thm.2.9}{}}
\newlabel{rem:outer_cartesian_maximal_marking}{{2.10}{16}{}{thm.2.10}{}}
\newlabel{r:iso}{{2.11}{16}{}{thm.2.11}{}}
\citation{HTT}
\citation{GagnaHarpazLanariLaxLimits}
\newlabel{r:fibers}{{2.12}{17}{}{thm.2.12}{}}
\newlabel{r:cart-equiv}{{2.13}{17}{}{thm.2.13}{}}
\newlabel{s:join}{{2.2}{17}{The join and slice constructions}{subsection.2.2}{}}
\@writefile{toc}{\contentsline {subsection}{\tocsubsection {}{2.2}{The join and slice constructions}}{17}{subsection.2.2}\protected@file@percent }
\citation{GagnaHarpazLanariLaxLimits}
\newlabel{d:anodyne-marked}{{2.17}{18}{}{thm.2.17}{}}
\newlabel{item:marked_outer-1}{{\penalty \@M C1\hfil }{18}{\enit@align {\enit@format {C1\label {item:marked_outer-1}}}}{section*.14}{}}
\newlabel{item:marked_outer-2}{{\penalty \@M C2\hfil }{18}{\enit@align {\enit@format {C2\label {item:marked_outer-2}}}}{section*.15}{}}
\newlabel{item:marked_outer-3}{{\penalty \@M C3\hfil }{18}{\enit@align {\enit@format {C3\label {item:marked_outer-3}}}}{section*.16}{}}
\newlabel{item:marked_outer-4}{{\penalty \@M C4\hfil }{18}{\enit@align {\enit@format {C4\label {item:marked_outer-4}}}}{section*.17}{}}
\newlabel{p:char}{{2.19}{18}{}{thm.2.19}{}}
\citation{LurieGoodwillie}
\citation{GagnaHarpazLanariLaxLimits}
\citation{GagnaHarpazLanariLaxLimits}
\newlabel{d:join}{{2.20}{19}{}{thm.2.20}{}}
\newlabel{d:marked-slice}{{2.21}{19}{}{thm.2.21}{}}
\newlabel{rem:join_underlying_id}{{2.23}{19}{}{thm.2.23}{}}
\citation{JoyalQCatsAndKan}
\newlabel{l:pushout-join}{{2.24}{20}{}{thm.2.24}{}}
\newlabel{e:pushout-join}{{2.1}{20}{}{equation.2.1}{}}
\newlabel{eq:pushout-join-3}{{2.2}{21}{The join and slice constructions}{equation.2.2}{}}
\newlabel{c:slice-3}{{2.26}{21}{}{thm.2.26}{}}
\newlabel{c:slice}{{2.27}{21}{}{thm.2.27}{}}
\citation{GagnaHarpazLanariLaxLimits}
\citation{LurieGoodwillie}
\citation{LurieGoodwillie}
\citation{HTT}
\citation{LurieGoodwillie}
\citation{GagnaHarpazLanariGrayLaxFunctors}
\citation{VerityComplicial}
\citation{OzornovaRovelliVerityGray}
\newlabel{r:closure}{{2.28}{22}{}{thm.2.28}{}}
\newlabel{s:map}{{2.3}{22}{Mapping categories}{subsection.2.3}{}}
\@writefile{toc}{\contentsline {subsection}{\tocsubsection {}{2.3}{Mapping categories}}{22}{subsection.2.3}\protected@file@percent }
\newlabel{def:mapping-oo-cat}{{2.29}{22}{}{thm.2.29}{}}
\newlabel{cn:map}{{2.31}{23}{}{thm.2.31}{}}
\newlabel{e:i}{{2.3}{23}{}{equation.2.3}{}}
\newlabel{e:product-to-join}{{2.4}{23}{}{equation.2.4}{}}
\newlabel{r:fibrant}{{2.32}{23}{}{thm.2.32}{}}
\newlabel{p:mapping-1}{{2.33}{23}{}{thm.2.33}{}}
\newlabel{l:core}{{2.34}{23}{}{thm.2.34}{}}
\newlabel{e:core}{{2.5}{23}{}{equation.2.5}{}}
\newlabel{e:core-2}{{2.6}{24}{}{equation.2.6}{}}
\newlabel{i:assume}{{{(i)}}{24}{Mapping categories}{Item.5}{}}
\newlabel{ii:assume}{{{(ii)}}{24}{Mapping categories}{Item.6}{}}
\newlabel{iii:assume}{{{(iii)}}{24}{Mapping categories}{Item.7}{}}
\newlabel{i:star}{{2.3}{24}{Mapping categories}{Item.7}{}}
\citation{HTT}
\citation{LurieKerodon}
\citation{LurieGoodwillie}
\newlabel{diag:lifting_problem_homotopy_fiber}{{2.7}{26}{Mapping categories}{equation.2.7}{}}
\newlabel{diag:lift_homotopy_fiber}{{2.8}{26}{Mapping categories}{equation.2.8}{}}
\newlabel{l:lurie-hom}{{2.35}{26}{\cite [Lemma~4.2.3]{LurieGoodwillie}}{thm.2.35}{}}
\newlabel{eq = ff + ess surj}{{2.36}{26}{}{thm.2.36}{}}
\newlabel{s:lift}{{2.4}{27}{Cartesian lifts of natural transformations}{subsection.2.4}{}}
\@writefile{toc}{\contentsline {subsection}{\tocsubsection {}{2.4}{Cartesian lifts of natural transformations}}{27}{subsection.2.4}\protected@file@percent }
\newlabel{d: pointwise nat transf}{{2.37}{27}{}{thm.2.37}{}}
\newlabel{p:natural-lift}{{2.38}{27}{Lifting natural transformations}{thm.2.38}{}}
\newlabel{cn:filtration}{{2.41}{27}{}{thm.2.41}{}}
\citation{HTT}
\newlabel{e:filtration-0}{{2.9}{28}{}{equation.2.9}{}}
\newlabel{e:filtration-1}{{2.10}{28}{}{equation.2.10}{}}
\newlabel{eq:outer-horn}{{2.11}{29}{Cartesian lifts of natural transformations}{equation.2.11}{}}
\@writefile{toc}{\contentsline {section}{\tocsection {}{3}{Thin triangles in weak $\infty $-bicategories}}{30}{section.3}\protected@file@percent }
\newlabel{sec:thin}{{3}{30}{Thin triangles in weak \pdfoo -bicategories}{section.3}{}}
\newlabel{l:moving-1}{{3.1}{30}{}{thm.3.1}{}}
\newlabel{reduced form}{{3.1}{30}{}{thm.3.1}{}}
\newlabel{r:hat-alp}{{3.2}{30}{}{thm.3.2}{}}
\newlabel{p:detects}{{3.3}{30}{}{thm.3.3}{}}
\newlabel{e:f}{{3.1}{31}{Thin triangles in weak \pdfoo -bicategories}{equation.3.1}{}}
\newlabel{p:joyal-2}{{3.4}{31}{}{thm.3.4}{}}
\newlabel{e:square-map}{{3.2}{31}{Thin triangles in weak \pdfoo -bicategories}{equation.3.2}{}}
\newlabel{c:joyal-2}{{3.5}{32}{}{thm.3.5}{}}
\@writefile{toc}{\contentsline {section}{\tocsection {}{4}{The moving lemma}}{32}{section.4}\protected@file@percent }
\newlabel{sec:moving}{{4}{32}{The moving lemma}{section.4}{}}
\newlabel{d:admissible}{{4.1}{32}{}{thm.4.1}{}}
\newlabel{ex:admissible}{{4.2}{32}{}{thm.4.2}{}}
\citation{GagnaHarpazLanariGrayLaxFunctors}
\citation{GagnaHarpazLanariLaxLimits}
\newlabel{d:transformation}{{4.3}{33}{}{thm.4.3}{}}
\newlabel{i:trans-1}{{1}{33}{}{Item.15}{}}
\newlabel{i:trans-2}{{2}{33}{}{Item.16}{}}
\newlabel{i:trans-3}{{3}{33}{}{Item.17}{}}
\newlabel{rem:trans_deg_edges}{{4.4}{33}{}{thm.4.4}{}}
\newlabel{rem:transdeg_triangles}{{4.5}{33}{}{thm.4.5}{}}
\newlabel{n:L-A}{{4.6}{33}{}{thm.4.6}{}}
\newlabel{r:degenerate-moving}{{4.7}{33}{}{thm.4.7}{}}
\newlabel{ob:filtration}{{4.8}{34}{}{thm.4.8}{}}
\newlabel{l:moving-lemma}{{4.9}{34}{The moving lemma}{thm.4.9}{}}
\newlabel{r:gray}{{4.10}{34}{}{thm.4.10}{}}
\newlabel{c:moving-scaled}{{4.12}{37}{}{thm.4.12}{}}
\citation{JoyalQCatsAndKan}
\@writefile{toc}{\contentsline {section}{\tocsection {}{5}{Weak $\infty $-bicategories are $\infty $-bicategories}}{38}{section.5}\protected@file@percent }
\newlabel{sec:weak-is-strong}{{5}{38}{Weak \pdfoo -bicategories are \pdfoo -bicategories}{section.5}{}}
\newlabel{t:fibrant}{{5.1}{38}{}{thm.5.1}{}}
\newlabel{l:joyal}{{5.2}{38}{Special outer horns}{thm.5.2}{}}
\newlabel{e:weak-problem}{{5.1}{38}{Special outer horns}{equation.5.1}{}}
\newlabel{e:weak-problem-2}{{5.2}{38}{Weak \pdfoo -bicategories are \pdfoo -bicategories}{equation.5.2}{}}
\newlabel{p:step-1}{{5.3}{39}{}{thm.5.3}{}}
\newlabel{e:h}{{5.3}{39}{Weak \pdfoo -bicategories are \pdfoo -bicategories}{equation.5.3}{}}
\newlabel{e:C-over-y}{{5.4}{40}{Weak \pdfoo -bicategories are \pdfoo -bicategories}{equation.5.4}{}}
\newlabel{e:map-to-D}{{5.5}{40}{Weak \pdfoo -bicategories are \pdfoo -bicategories}{equation.5.5}{}}
\newlabel{e:on-mapping-cats}{{5.6}{40}{Weak \pdfoo -bicategories are \pdfoo -bicategories}{equation.5.6}{}}
\citation{LurieGoodwillie}
\newlabel{e:last-extension}{{5.7}{41}{Weak \pdfoo -bicategories are \pdfoo -bicategories}{equation.5.7}{}}
\newlabel{p:step-2}{{5.4}{42}{}{thm.5.4}{}}
\newlabel{e:diagram3}{{5.8}{42}{}{equation.5.8}{}}
\newlabel{e:diagram4}{{5.9}{42}{}{equation.5.9}{}}
\newlabel{e:filt-0-again}{{5.10}{42}{Weak \pdfoo -bicategories are \pdfoo -bicategories}{equation.5.10}{}}
\newlabel{weak are strong}{{5.5}{43}{}{thm.5.5}{}}
\citation{JoyalQCatsApplications}
\@writefile{toc}{\contentsline {section}{\tocsection {}{6}{The Cisinski model structure for $\infty $-bicategories}}{44}{section.6}\protected@file@percent }
\newlabel{sec:cis}{{6}{44}{The Cisinski model structure for \pdfoo -bicategories}{section.6}{}}
\newlabel{interval J}{{6.2}{44}{}{thm.6.2}{}}
\@writefile{toc}{\contentsline {section}{\tocsection {}{7}{The main equivalence}}{45}{section.7}\protected@file@percent }
\newlabel{sec:equivalence}{{7}{45}{The main equivalence}{section.7}{}}
\newlabel{d: iota}{{7.1}{45}{}{thm.7.1}{}}
\newlabel{basic obs}{{7.2}{45}{}{thm.7.2}{}}
\citation{VerityWeakComplicialI}
\newlabel{fib repl}{{7.4}{46}{}{thm.7.4}{}}
\newlabel{Quillen adj}{{7.5}{47}{}{thm.7.5}{}}
\newlabel{l:inner anod}{{7.6}{48}{}{thm.7.6}{}}
\newlabel{l:outer-anodyne}{{7.7}{48}{}{thm.7.7}{}}
\newlabel{e:lift}{{7.1}{48}{The main equivalence}{equation.7.1}{}}
\newlabel{e:modified-lift}{{7.2}{49}{The main equivalence}{equation.7.2}{}}
\newlabel{e:modified-lift-2}{{7.3}{49}{The main equivalence}{equation.7.3}{}}
\newlabel{e:step}{{7.4}{49}{The main equivalence}{equation.7.4}{}}
\newlabel{l:saturation-anodyne}{{7.8}{50}{}{thm.7.8}{}}
\citation{VerityWeakComplicialI}
\citation{VerityWeakComplicialI}
\newlabel{Quillen eq}{{7.9}{51}{}{thm.7.9}{}}
\citation{VerityWeakComplicialI}
\newlabel{lem: pointwise eq}{{7.10}{52}{}{thm.7.10}{}}
\citation{StreetOrientals}
\citation{AraMaltsiCondE}
\citation{AraMaltsiCondE}
\citation{LurieGoodwillie}
\@writefile{toc}{\contentsline {section}{\tocsection {}{8}{The homotopy $2$-category and the scaled $2$-nerve}}{53}{section.8}\protected@file@percent }
\newlabel{sec:2-nerve}{{8}{53}{The homotopy \pdftwo -category and the scaled \pdftwo -nerve}{section.8}{}}
\newlabel{d:scaled-2}{{8.1}{53}{}{thm.8.1}{}}
\newlabel{nerves coincide}{{8.2}{53}{}{thm.8.2}{}}
\newlabel{nerve is fully faithful}{{8.3}{54}{}{thm.8.3}{}}
\newlabel{e:composition}{{8.1}{54}{The homotopy \pdftwo -category and the scaled \pdftwo -nerve}{equation.8.1}{}}
\newlabel{conservativity thm}{{8.4}{54}{}{thm.8.4}{}}
\newlabel{pre-conservativity thm}{{8.6}{55}{}{thm.8.6}{}}
\citation{OlschokLeft}
\citation{CisinskiPrefaisceaux}
\citation{CisinskiHigherCats}
\citation{OlschokLeft}
\citation{OlschokLeft}
\citation{CisinskiPrefaisceaux}
\citation{OlschokLeft}
\citation{GaucherLeftDetermined}
\@writefile{toc}{\contentsline {section}{\tocsection {Appendix}{A}{Recollections on Cisinski's and Olschok's theory}}{56}{appendix.A}\protected@file@percent }
\newlabel{a:standing}{{A.1}{56}{}{thm.A.1}{}}
\newlabel{r:reflective}{{A.2}{56}{}{thm.A.2}{}}
\newlabel{d:cylinder}{{A.5}{56}{}{thm.A.5}{}}
\citation{OlschokLeft}
\citation{CisinskiPrefaisceaux}
\citation{CisinskiPrefaisceaux}
\citation{OlschokLeft}
\citation{CisinskiPrefaisceaux}
\citation{OlschokLeft}
\citation{GaucherLeftDetermined}
\citation{OlschokLeft}
\citation{CisinskiPrefaisceaux}
\citation{CisinskiPrefaisceaux}
\citation{OlschokLeft}
\citation{CisinskiHigherCats}
\citation{HTT}
\citation{JoyalQCatsApplications}
\bibstyle{amsplain}
\bibdata{biblio}
\bibcite{AraQCatvsRezk}{1}
\newlabel{r:easy-cylinder}{{A.6}{57}{}{thm.A.6}{}}
\newlabel{nota:anodyne}{{A.8}{57}{}{thm.A.8}{}}
\newlabel{thm:cisinski_model}{{A.9}{57}{\cite {CisinskiPrefaisceaux}, \cite {OlschokLeft}}{thm.A.9}{}}
\newlabel{rmk:fibrations-between-fibrants}{{A.10}{57}{}{thm.A.10}{}}
\newlabel{rmk:weak_equivalences}{{A.11}{57}{}{thm.A.11}{}}
\newlabel{prop:left-adj_is_quillen}{{A.12}{57}{}{thm.A.12}{}}
\bibcite{AraMaltsiCondE}{2}
\bibcite{BarwickSchommerPriesUnicity}{3}
\bibcite{BergerMoerdijkHomotopyEnriched}{4}
\bibcite{BergnerRezkInftynI}{5}
\bibcite{BergnerRezkInftynII}{6}
\bibcite{BoardmanVogt}{7}
\bibcite{CampbellCellular}{8}
\bibcite{cubical}{9}
\bibcite{CisinskiPrefaisceaux}{10}
\bibcite{CisinskiHigherCats}{11}
\bibcite{DKM-equivalence}{12}
\bibcite{GagnaHarpazLanariLaxLimits}{13}
\bibcite{GagnaHarpazLanari2Fib}{14}
\bibcite{GagnaHarpazLanariGrayLaxFunctors}{15}
\bibcite{GaucherLeftDetermined}{16}
\bibcite{GindiRigidification}{17}
\bibcite{JoyalQCatsAndKan}{18}
\bibcite{JoyalQCatsApplications}{19}
\bibcite{JoyalTierneyQcatVSSegal}{20}
\bibcite{LackModel2Cat}{21}
\bibcite{LackModelBicat}{22}
\bibcite{LurieGoodwillie}{23}
\bibcite{HTT}{24}
\bibcite{LurieKerodon}{25}
\bibcite{OlschokLeft}{26}
\bibcite{OzornovaRovelliNComplicial}{27}
\bibcite{OzornovaRovelli2Complicial}{28}
\bibcite{OzornovaRovelliVerityGray}{29}
\bibcite{RiehlOuverture}{30}
\bibcite{StreetOrientals}{31}
\@writefile{toc}{\contentsline {section}{\tocsection {Appendix}{}{References}}{58}{section*.25}\protected@file@percent }
\bibcite{VerityComplicial}{32}
\bibcite{VerityWeakComplicialI}{33}
\newlabel{tocindent-1}{0pt}
\newlabel{tocindent0}{64.43716pt}
\newlabel{tocindent1}{73.13156pt}
\newlabel{tocindent2}{44.59427pt}
\newlabel{tocindent3}{0pt}
\gdef \@abspage@last{59}
